<svg xmlns="http://www.w3.org/2000/svg" viewBox="0 0 28.311 57.82">
  <defs>
    <style>
      .cls-1 {
        fill: #fff;
      }
    </style>
  </defs>
  <title>arrow</title>
  <g id="Ebene_2" data-name="Ebene 2">
    <g id="Ebene_2-2" data-name="Ebene 2">
      <polygon class="cls-1" points="22.176 0 0 28.89 22.176 57.82 28.311 57.82 6.135 28.89 28.311 0 22.176 0"/>
    </g>
  </g>
</svg>
