<svg xmlns="http://www.w3.org/2000/svg" viewBox="0 0 21.78 12.425">
  <defs>
    <style>
      .cls-1 {
        fill: #fff;
      }
    </style>
  </defs>
  <title>dropwdown_arrow</title>
  <g id="Ebene_2" data-name="Ebene 2">
    <g id="Ebene_2-2" data-name="Ebene 2">
      <polygon class="cls-1" points="20.426 0 10.755 9.671 1.4 0.318 0 1.717 10.709 12.425 21.78 1.354 20.426 0"/>
    </g>
  </g>
</svg>
