<svg xmlns="http://www.w3.org/2000/svg" viewBox="0 0 32.881 34.582">
  <defs>
    <style>
      .cls-1 {
        fill: #cc1719;
      }
    </style>
  </defs>
  <title>Element 1</title>
  <g id="Ebene_2" data-name="Ebene 2">
    <g id="Ebene_2-2" data-name="Ebene 2">
      <path class="cls-1" d="M32.55,0a21.539,21.539,0,0,0-4.606.732A8.535,8.535,0,0,0,24.967,2.22,20.7,20.7,0,0,0,22,5.4Q20.36,7.488,17.22,12.189q-2.245,3.354-5.362,8.291Q8.6,25.654,8.125,25.653q-.543,0-1.346-2.268-.354-1.016-.591-1.606a4.119,4.119,0,0,0-.708-1.264,1.115,1.115,0,0,0-.8-.3A5.339,5.339,0,0,0,1.57,21.342,3.108,3.108,0,0,0,0,23.811a17.743,17.743,0,0,0,.732,3.283,3.6,3.6,0,0,0,.094.354q.638,2.363,1.11,3.579A8.964,8.964,0,0,0,2.952,33a3.845,3.845,0,0,0,1.441,1.229,4.817,4.817,0,0,0,1.984.354q2.835,0,4.37-3.071.5-1.016.827-1.582a173.274,173.274,0,0,1,9.838-14.977q5.35-7.3,11.469-14.125Z"/>
    </g>
  </g>
</svg>
